326.212 Final Project: Part 2
…
flights <- tbl(con, "flights")

flights_query <- flights %>% 
    filter(Dest %in% c("SNA", "SJC", "SMF")) %>% 
    group_by(Year, Month, Dest) %>% 
    summarise(flights_count = n())

airportcounts <- collect(flights_query)

airportcounts <- left_join(airportcounts, airports_name, by = c("Dest" = "IATA"))

airportcounts

## # A tibble: 648 x 5
## # Groups:   Year, Month [216]
##     Year Month Dest  flights_count Name                                    
##    <int> <int> <chr>         <int> <chr>                                   
##  1  2001     1 SJC            6321 Norman Y. Mineta San Jose International~
##  2  2001     1 SMF            3325 Sacramento International Airport        
##  3  2001     1 SNA            3726 John Wayne Airport-Orange County Airport
##  4  2001     2 SJC            5720 Norman Y. Mineta San Jose International~
##  5  2001     2 SMF            2930 Sacramento International Airport        
##  6  2001     2 SNA            3327 John Wayne Airport-Orange County Airport
##  7  2001     3 SJC            6426 Norman Y. Mineta San Jose International~
##  8  2001     3 SMF            3342 Sacramento International Airport        
##  9  2001     3 SNA            3676 John Wayne Airport-Orange County Airport
## 10  2001     4 SJC            6202 Norman Y. Mineta San Jose International~
## # ... with 638 more rows
…
Year Month , Date column  ,

   lubridate make_date  .

 , Date   .

(  ,  1 )

airportcounts <- airportcounts %>% 
    mutate(Date = make_date(Year, Month)) %>% 
    arrange(Date)

airportcounts

## # A tibble: 648 x 6
## # Groups:   Year, Month [216]
##     Year Month Dest  flights_count Name                          Date      
##    <int> <int> <chr>         <int> <chr>                         <date>    
##  1  2001     1 SJC            6321 Norman Y. Mineta San Jose In~ 2001-01-01
##  2  2001     1 SMF            3325 Sacramento International Air~ 2001-01-01
##  3  2001     1 SNA            3726 John Wayne Airport-Orange Co~ 2001-01-01
##  4  2001     2 SJC            5720 Norman Y. Mineta San Jose In~ 2001-02-01
##  5  2001     2 SMF            2930 Sacramento International Air~ 2001-02-01
##  6  2001     2 SNA            3327 John Wayne Airport-Orange Co~ 2001-02-01
##  7  2001     3 SJC            6426 Norman Y. Mineta San Jose In~ 2001-03-01
##  8  2001     3 SMF            3342 Sacramento International Air~ 2001-03-01
##  9  2001     3 SNA            3676 John Wayne Airport-Orange Co~ 2001-03-01
## 10  2001     4 SJC            6202 Norman Y. Mineta San Jose In~ 2001-04-01
## # ... with 638 more rows
…
   airportscount  grouping ,    ,

dense_rank  ,      .

 , rank           .

largest_month <- airportcounts %>% 
ungroup() %>% 
group_by(Dest) %>%
mutate(rank = dense_rank(desc(flights_count))) %>% 
arrange(rank)

largest_month

## # A tibble: 648 x 7
## # Groups:   Dest [3]
##     Year Month Dest  flights_count Name                    Date        rank
##    <int> <int> <chr>         <int> <chr>                   <date>     <int>
##  1  2001     8 SJC            6682 Norman Y. Mineta San J~ 2001-08-01     1
##  2  2006     8 SNA            4598 John Wayne Airport-Ora~ 2006-08-01     1
##  3  2007     7 SMF            5245 Sacramento Internation~ 2007-07-01     1
##  4  2001     7 SJC            6670 Norman Y. Mineta San J~ 2001-07-01     2
##  5  2007     8 SMF            5218 Sacramento Internation~ 2007-08-01     2
##  6  2007     8 SNA            4584 John Wayne Airport-Ora~ 2007-08-01     2
##  7  2001     5 SJC            6501 Norman Y. Mineta San J~ 2001-05-01     3
##  8  2007     5 SNA            4568 John Wayne Airport-Ora~ 2007-05-01     3
##  9  2007    10 SMF            5120 Sacramento Internation~ 2007-10-01     3
## 10  2001     6 SJC            6436 Norman Y. Mineta San J~ 2001-06-01     4
## # ... with 638 more rows

,        10   .

Q1_5 <- largest_month %>% filter(rank <= 10) %>% select(Year, Month, Dest, flights_count, rank)

Q1_5

## # A tibble: 30 x 5
## # Groups:   Dest [3]
##     Year Month Dest  flights_count  rank
##    <int> <int> <chr>         <int> <int>
##  1  2001     8 SJC            6682     1
##  2  2006     8 SNA            4598     1
##  3  2007     7 SMF            5245     1
##  4  2001     7 SJC            6670     2
##  5  2007     8 SMF            5218     2
##  6  2007     8 SNA            4584     2
##  7  2001     5 SJC            6501     3
##  8  2007     5 SNA            4568     3
##  9  2007    10 SMF            5120     3
## 10  2001     6 SJC            6436     4
## # ... with 20 more rows
…
flights <- tbl(con, "flights")

flights_query <- flights %>% 
    filter(Year == 2015, Op_Unique_Carrier %in% c("UA", "DL", "AA", "MQ"), Origin == "ORD", Dest == "MSP") %>% 
    group_by(Year, Month, Day_of_Month, Op_Unique_Carrier) %>% 
    summarise(avg_Arr_Delay = mean(Arr_Delay, na.rm = TRUE)) %>% 
    filter(!is.na(avg_Arr_Delay))

delays <- collect(flights_query) %>% 
    ungroup() %>%  
    transmute(Date = make_date(Year, Month, Day_of_Month), Carrier = Op_Unique_Carrier, avg_Arr_Delay)

delays

## # A tibble: 1,188 x 3
##    Date       Carrier avg_Arr_Delay
##    <date>     <chr>           <dbl>
##  1 2015-01-01 AA             120.  
##  2 2015-01-01 DL             -12.5 
##  3 2015-01-01 MQ               2.33
##  4 2015-01-02 AA             -10.5 
##  5 2015-01-02 DL              -1   
##  6 2015-01-02 MQ               3.33
##  7 2015-01-03 AA             124.  
##  8 2015-01-03 DL              48.5 
##  9 2015-01-03 MQ              20   
## 10 2015-01-04 AA             101.  
## # ... with 1,178 more rows
…
