326.212 Final Project: Part 3
…
 ,   flight   , Tail_Num Dep_Delay  ,

Q1 , Dep_Delay 0 , Dep_Delay 0  .     dep_delay    , dep_delay   ,       , Dep_Delay 0  Dep_delay 0   .

  Tail_Num  airplanes_year  TailNum inner_join        . (inner_join )

 ,      age  , (inner_join  transmute ) age    age   Dep_Delay  ,  flights_delay .

  ,         .

flights_delay

## # A tibble: 67 x 4
##      age avg_Dep_Delay sd_Dep_Delay   count
##    <int>         <dbl>        <dbl>   <int>
##  1    -5          7.88         34.9    2074
##  2    -4          6.83         24.3    2081
##  3    -3         11.9          41.3    2086
##  4    -2         11.0          35.9    1922
##  5    -1         12.1          32.1    2093
##  6     0         10.8          30.1  629545
##  7     1         10.5          29.5 1819104
##  8     2         10.4          29.6 2420259
##  9     3         10.7          30.2 2935674
## 10     4         11.1          31.0 3247111
## # ... with 57 more rows
…
